[{"id":1,"name":"Dalila","price":100,"qty":4},
    {"id":2,"name":"Nicolina","price":21,"qty":3},
    {"id":3,"name":"Hi","price":68,"qty":9},
    {"id":4,"name":"Leisha","price":26,"qty":10},
    {"id":5,"name":"Juliette","price":14,"qty":9},
    {"id":6,"name":"Zoe","price":97,"qty":2},
    {"id":7,"name":"Montgomery","price":37,"qty":4},
    {"id":8,"name":"Obadias","price":12,"qty":4},
    {"id":9,"name":"Hadlee","price":47,"qty":9},
    {"id":10,"name":"Loni","price":11,"qty":9},
    {"id":11,"name":"Ario","price":59,"qty":3},
    {"id":12,"name":"Ruthi","price":75,"qty":4},
    {"id":13,"name":"Helen","price":83,"qty":1},
    {"id":14,"name":"Min","price":7,"qty":2},
    {"id":15,"name":"Cammie","price":33,"qty":7},
    {"id":16,"name":"Benny","price":20,"qty":2},
    {"id":17,"name":"Gerome","price":21,"qty":7},
    {"id":18,"name":"Barney","price":90,"qty":2},
    {"id":19,"name":"Peg","price":62,"qty":3},
    {"id":20,"name":"Byron","price":9,"qty":4},
    {"id":21,"name":"Earlie","price":64,"qty":1},
    {"id":22,"name":"Gweneth","price":19,"qty":3},
    {"id":23,"name":"Keefe","price":52,"qty":3},
    {"id":24,"name":"Kim","price":34,"qty":10},
    {"id":25,"name":"Carroll","price":35,"qty":8},
    {"id":26,"name":"Devonna","price":23,"qty":6},
    {"id":27,"name":"Maxie","price":16,"qty":9},
    {"id":28,"name":"Vince","price":1,"qty":4},
    {"id":29,"name":"Evy","price":88,"qty":2},
    {"id":30,"name":"Frank","price":18,"qty":3},
    {"id":31,"name":"Menard","price":22,"qty":8},
    {"id":32,"name":"Faulkner","price":60,"qty":1},
    {"id":33,"name":"Caryl","price":67,"qty":5},
    {"id":34,"name":"Dori","price":7,"qty":4},
    {"id":35,"name":"Matty","price":98,"qty":5},
    {"id":36,"name":"Birdie","price":76,"qty":4},
    {"id":37,"name":"Antonie","price":69,"qty":4},
    {"id":38,"name":"Elenore","price":81,"qty":6},
    {"id":39,"name":"Rab","price":89,"qty":9},
    {"id":40,"name":"Say","price":16,"qty":8},
    {"id":41,"name":"Cosimo","price":93,"qty":9},
    {"id":42,"name":"Jon","price":59,"qty":7},
    {"id":43,"name":"Barbabra","price":17,"qty":8},
    {"id":44,"name":"Tine","price":17,"qty":2},
    {"id":45,"name":"Karlyn","price":79,"qty":2},
    {"id":46,"name":"Tania","price":61,"qty":3},
    {"id":47,"name":"Lexi","price":34,"qty":3},
    {"id":48,"name":"Willetta","price":46,"qty":3},
    {"id":49,"name":"Irvin","price":20,"qty":1},
    {"id":50,"name":"Welby","price":1,"qty":4},
    {"id":51,"name":"Ingrid","price":92,"qty":4},
    {"id":52,"name":"Minette","price":71,"qty":6},
    {"id":53,"name":"Corinna","price":11,"qty":9},
    {"id":54,"name":"Hewe","price":72,"qty":6},
    {"id":55,"name":"Helaine","price":54,"qty":10},
    {"id":56,"name":"Sheri","price":41,"qty":3},
    {"id":57,"name":"Jesus","price":55,"qty":2},
    {"id":58,"name":"Rabi","price":88,"qty":2},
    {"id":59,"name":"Sayres","price":2,"qty":3},
    {"id":60,"name":"Aundrea","price":97,"qty":6},
    {"id":61,"name":"Gisele","price":23,"qty":4},
    {"id":62,"name":"Anjela","price":55,"qty":1},
    {"id":63,"name":"Laural","price":93,"qty":6},
    {"id":64,"name":"Joella","price":10,"qty":6},
    {"id":65,"name":"Kippar","price":50,"qty":7},
    {"id":66,"name":"Coraline","price":66,"qty":3},
    {"id":67,"name":"Fedora","price":42,"qty":5},
    {"id":68,"name":"Gayle","price":63,"qty":6},
    {"id":69,"name":"Gordon","price":56,"qty":3},
    {"id":70,"name":"Jessamine","price":72,"qty":4},
    {"id":71,"name":"Merv","price":74,"qty":6},
    {"id":72,"name":"Jacquenetta","price":98,"qty":9},
    {"id":73,"name":"Kasper","price":30,"qty":1},
    {"id":74,"name":"Darell","price":68,"qty":3},
    {"id":75,"name":"Adey","price":19,"qty":10},
    {"id":76,"name":"Marita","price":10,"qty":1},
    {"id":77,"name":"Gladi","price":13,"qty":10},
    {"id":78,"name":"Ronica","price":50,"qty":2},
    {"id":79,"name":"Leanna","price":30,"qty":4},
    {"id":80,"name":"Zerk","price":4,"qty":3},
    {"id":81,"name":"Andy","price":75,"qty":8},
    {"id":82,"name":"Agace","price":77,"qty":5},
    {"id":83,"name":"Laurella","price":14,"qty":6},
    {"id":84,"name":"Shane","price":90,"qty":5},
    {"id":85,"name":"Neille","price":89,"qty":5},
    {"id":86,"name":"Dode","price":80,"qty":4},
    {"id":87,"name":"Kimbra","price":88,"qty":5},
    {"id":88,"name":"Dianne","price":12,"qty":7},
    {"id":89,"name":"Corby","price":52,"qty":10},
    {"id":90,"name":"Kimmi","price":50,"qty":1},
    {"id":91,"name":"Sonni","price":12,"qty":10},
    {"id":92,"name":"Edvard","price":91,"qty":1},
    {"id":93,"name":"Haslett","price":47,"qty":8},
    {"id":94,"name":"Keith","price":1,"qty":8},
    {"id":95,"name":"Danica","price":13,"qty":7},
    {"id":96,"name":"Matilde","price":33,"qty":7},
    {"id":97,"name":"Mikael","price":100,"qty":5},
    {"id":98,"name":"Patrizio","price":26,"qty":2},
    {"id":99,"name":"Luise","price":19,"qty":3},
    {"id":100,"name":"Rourke","price":15,"qty":5},
    {"id":101,"name":"Christabel","price":33,"qty":10},
    {"id":102,"name":"Stillman","price":47,"qty":6},
    {"id":103,"name":"Care","price":48,"qty":8},
    {"id":104,"name":"Werner","price":43,"qty":4},
    {"id":105,"name":"Rebeka","price":80,"qty":5},
    {"id":106,"name":"Dasha","price":41,"qty":2},
    {"id":107,"name":"Dareen","price":45,"qty":10},
    {"id":108,"name":"Piotr","price":12,"qty":7},
    {"id":109,"name":"Risa","price":9,"qty":3},
    {"id":110,"name":"Vinny","price":44,"qty":1},
    {"id":111,"name":"Dag","price":24,"qty":3},
    {"id":112,"name":"Jillie","price":84,"qty":10},
    {"id":113,"name":"Rosa","price":69,"qty":9},
    {"id":114,"name":"Silvia","price":49,"qty":1},
    {"id":115,"name":"Enrichetta","price":85,"qty":2},
    {"id":116,"name":"Kendrick","price":12,"qty":3},
    {"id":117,"name":"Irena","price":81,"qty":1},
    {"id":118,"name":"Delora","price":10,"qty":6},
    {"id":119,"name":"Mischa","price":52,"qty":1},
    {"id":120,"name":"Starla","price":87,"qty":10},
    {"id":121,"name":"Cornela","price":3,"qty":9},
    {"id":122,"name":"Marcos","price":61,"qty":10},
    {"id":123,"name":"Marsha","price":86,"qty":3},
    {"id":124,"name":"Gardner","price":97,"qty":6},
    {"id":125,"name":"Valentino","price":80,"qty":10},
    {"id":126,"name":"Dinah","price":93,"qty":6},
    {"id":127,"name":"Alleen","price":29,"qty":6},
    {"id":128,"name":"Cris","price":48,"qty":6},
    {"id":129,"name":"Darrell","price":10,"qty":8},
    {"id":130,"name":"Cassandry","price":57,"qty":1},
    {"id":131,"name":"Herb","price":38,"qty":7},
    {"id":132,"name":"Arabel","price":59,"qty":8},
    {"id":133,"name":"Demetre","price":47,"qty":3},
    {"id":134,"name":"Darcy","price":16,"qty":3},
    {"id":135,"name":"Viviene","price":18,"qty":9},
    {"id":136,"name":"Peirce","price":69,"qty":1},
    {"id":137,"name":"Mady","price":38,"qty":7},
    {"id":138,"name":"Neille","price":96,"qty":1},
    {"id":139,"name":"Lodovico","price":37,"qty":3},
    {"id":140,"name":"Gena","price":22,"qty":5},
    {"id":141,"name":"Jess","price":66,"qty":4},
    {"id":142,"name":"Oliviero","price":40,"qty":8},
    {"id":143,"name":"Farly","price":24,"qty":7},
    {"id":144,"name":"Greta","price":6,"qty":8},
    {"id":145,"name":"Arlana","price":40,"qty":4},
    {"id":146,"name":"Joyann","price":72,"qty":7},
    {"id":147,"name":"Alex","price":92,"qty":9},
    {"id":148,"name":"Taylor","price":26,"qty":1},
    {"id":149,"name":"Demott","price":8,"qty":3},
    {"id":150,"name":"Cheri","price":94,"qty":6},
    {"id":151,"name":"Faye","price":79,"qty":10},
    {"id":152,"name":"Seana","price":62,"qty":8},
    {"id":153,"name":"Selig","price":72,"qty":4},
    {"id":154,"name":"Torrie","price":76,"qty":7},
    {"id":155,"name":"Merle","price":58,"qty":9},
    {"id":156,"name":"Pancho","price":85,"qty":2},
    {"id":157,"name":"Artair","price":17,"qty":8},
    {"id":158,"name":"Cathryn","price":69,"qty":10},
    {"id":159,"name":"Martino","price":6,"qty":9},
    {"id":160,"name":"Alida","price":89,"qty":5},
    {"id":161,"name":"Corenda","price":62,"qty":2},
    {"id":162,"name":"Emmalee","price":60,"qty":1},
    {"id":163,"name":"Josias","price":88,"qty":2},
    {"id":164,"name":"Hyacinth","price":12,"qty":7},
    {"id":165,"name":"Jacqui","price":100,"qty":8},
    {"id":166,"name":"Gypsy","price":91,"qty":1},
    {"id":167,"name":"Dot","price":69,"qty":2},
    {"id":168,"name":"Serena","price":25,"qty":10},
    {"id":169,"name":"Parsifal","price":28,"qty":8},
    {"id":170,"name":"Carree","price":53,"qty":9},
    {"id":171,"name":"Sayre","price":44,"qty":2},
    {"id":172,"name":"Devondra","price":49,"qty":7},
    {"id":173,"name":"Cecil","price":27,"qty":1},
    {"id":174,"name":"Beck","price":57,"qty":8},
    {"id":175,"name":"Nels","price":72,"qty":1},
    {"id":176,"name":"Bobbe","price":3,"qty":9},
    {"id":177,"name":"Tonnie","price":36,"qty":3},
    {"id":178,"name":"Leanor","price":14,"qty":7},
    {"id":179,"name":"Bay","price":89,"qty":6},
    {"id":180,"name":"Niki","price":95,"qty":1},
    {"id":181,"name":"Katinka","price":19,"qty":1},
    {"id":182,"name":"Dominique","price":60,"qty":4},
    {"id":183,"name":"Laverna","price":60,"qty":5},
    {"id":184,"name":"Pedro","price":77,"qty":2},
    {"id":185,"name":"Hunter","price":40,"qty":4},
    {"id":186,"name":"Claudio","price":28,"qty":2},
    {"id":187,"name":"Rosaline","price":32,"qty":6},
    {"id":188,"name":"Pierrette","price":53,"qty":4},
    {"id":189,"name":"Cherish","price":81,"qty":4},
    {"id":190,"name":"Richmound","price":29,"qty":5},
    {"id":191,"name":"Neila","price":46,"qty":8},
    {"id":192,"name":"Vaughn","price":10,"qty":6},
    {"id":193,"name":"Lauryn","price":74,"qty":10},
    {"id":194,"name":"Maisie","price":20,"qty":3},
    {"id":195,"name":"Ilaire","price":47,"qty":7},
    {"id":196,"name":"Salvador","price":15,"qty":10},
    {"id":197,"name":"Jorge","price":4,"qty":5},
    {"id":198,"name":"Lazarus","price":49,"qty":6},
    {"id":199,"name":"Ephraim","price":31,"qty":7},
    {"id":200,"name":"Kylie","price":92,"qty":5},
    {"id":201,"name":"Darill","price":27,"qty":1},
    {"id":202,"name":"Forrester","price":42,"qty":7},
    {"id":203,"name":"Archibald","price":84,"qty":1},
    {"id":204,"name":"Danit","price":66,"qty":5},
    {"id":205,"name":"Noelyn","price":78,"qty":4},
    {"id":206,"name":"Babbie","price":93,"qty":5},
    {"id":207,"name":"Mirabelle","price":27,"qty":2},
    {"id":208,"name":"Elva","price":24,"qty":5},
    {"id":209,"name":"Jessey","price":49,"qty":10},
    {"id":210,"name":"D'arcy","price":29,"qty":6},
    {"id":211,"name":"Abbey","price":15,"qty":4},
    {"id":212,"name":"Ethelda","price":31,"qty":9},
    {"id":213,"name":"Nicki","price":59,"qty":2},
    {"id":214,"name":"Norris","price":3,"qty":3},
    {"id":215,"name":"Zedekiah","price":83,"qty":10},
    {"id":216,"name":"Isadora","price":98,"qty":9},
    {"id":217,"name":"Doy","price":90,"qty":10},
    {"id":218,"name":"Rois","price":16,"qty":7},
    {"id":219,"name":"Chery","price":69,"qty":6},
    {"id":220,"name":"Maxie","price":57,"qty":7},
    {"id":221,"name":"Alair","price":61,"qty":5},
    {"id":222,"name":"Saunders","price":61,"qty":9},
    {"id":223,"name":"Jehu","price":32,"qty":8},
    {"id":224,"name":"Constantina","price":85,"qty":1},
    {"id":225,"name":"Jacqui","price":17,"qty":1},
    {"id":226,"name":"Cordelie","price":31,"qty":5},
    {"id":227,"name":"Dorthea","price":39,"qty":7},
    {"id":228,"name":"Raff","price":66,"qty":8},
    {"id":229,"name":"Emelen","price":84,"qty":10},
    {"id":230,"name":"Gwennie","price":40,"qty":9},
    {"id":231,"name":"Tomaso","price":13,"qty":6},
    {"id":232,"name":"Clifford","price":95,"qty":8},
    {"id":233,"name":"Kesley","price":28,"qty":9},
    {"id":234,"name":"Nicki","price":37,"qty":10},
    {"id":235,"name":"Ethelbert","price":46,"qty":2},
    {"id":236,"name":"Brena","price":68,"qty":5},
    {"id":237,"name":"Clemmie","price":13,"qty":1},
    {"id":238,"name":"Avery","price":35,"qty":2},
    {"id":239,"name":"Had","price":31,"qty":3},
    {"id":240,"name":"Daffy","price":64,"qty":9},
    {"id":241,"name":"Adelheid","price":45,"qty":10},
    {"id":242,"name":"Fancy","price":21,"qty":1},
    {"id":243,"name":"Isobel","price":50,"qty":10},
    {"id":244,"name":"Sid","price":87,"qty":1},
    {"id":245,"name":"Lethia","price":87,"qty":5},
    {"id":246,"name":"Zacharia","price":96,"qty":4},
    {"id":247,"name":"Vally","price":60,"qty":9},
    {"id":248,"name":"Trever","price":74,"qty":1},
    {"id":249,"name":"Marlon","price":84,"qty":4},
    {"id":250,"name":"Greggory","price":65,"qty":9},
    {"id":251,"name":"Bari","price":82,"qty":8},
    {"id":252,"name":"Kerrin","price":44,"qty":2},
    {"id":253,"name":"Nolana","price":15,"qty":1},
    {"id":254,"name":"Zachery","price":16,"qty":1},
    {"id":255,"name":"Ellery","price":47,"qty":7},
    {"id":256,"name":"Thayne","price":2,"qty":8},
    {"id":257,"name":"Michaella","price":17,"qty":3},
    {"id":258,"name":"Hinda","price":40,"qty":4},
    {"id":259,"name":"Yul","price":30,"qty":7},
    {"id":260,"name":"Wendel","price":12,"qty":7},
    {"id":261,"name":"Desmund","price":53,"qty":4},
    {"id":262,"name":"Merrielle","price":50,"qty":5},
    {"id":263,"name":"Reg","price":74,"qty":6},
    {"id":264,"name":"Chanda","price":38,"qty":1},
    {"id":265,"name":"Konrad","price":26,"qty":10},
    {"id":266,"name":"Carrissa","price":14,"qty":1},
    {"id":267,"name":"Nikos","price":36,"qty":2},
    {"id":268,"name":"Mozes","price":49,"qty":5},
    {"id":269,"name":"Waring","price":5,"qty":8},
    {"id":270,"name":"Dyann","price":76,"qty":10},
    {"id":271,"name":"Donnajean","price":8,"qty":5},
    {"id":272,"name":"Tobe","price":88,"qty":3},
    {"id":273,"name":"Emera","price":88,"qty":8},
    {"id":274,"name":"Ginelle","price":13,"qty":7},
    {"id":275,"name":"Cassandre","price":7,"qty":4},
    {"id":276,"name":"Dur","price":43,"qty":7},
    {"id":277,"name":"Aime","price":78,"qty":9},
    {"id":278,"name":"Elsworth","price":99,"qty":5},
    {"id":279,"name":"Gregg","price":86,"qty":7},
    {"id":280,"name":"Marnie","price":2,"qty":9},
    {"id":281,"name":"Ephrem","price":35,"qty":4},
    {"id":282,"name":"Isis","price":99,"qty":2},
    {"id":283,"name":"Carmine","price":39,"qty":10},
    {"id":284,"name":"Zachery","price":29,"qty":5},
    {"id":285,"name":"Wakefield","price":78,"qty":9},
    {"id":286,"name":"Zack","price":76,"qty":5},
    {"id":287,"name":"Portia","price":53,"qty":10},
    {"id":288,"name":"Seline","price":87,"qty":7},
    {"id":289,"name":"Maurine","price":84,"qty":5},
    {"id":290,"name":"Lemuel","price":34,"qty":8},
    {"id":291,"name":"Reggy","price":7,"qty":1},
    {"id":292,"name":"Magdaia","price":59,"qty":9},
    {"id":293,"name":"Chaim","price":22,"qty":1},
    {"id":294,"name":"Sophi","price":82,"qty":2},
    {"id":295,"name":"Howard","price":50,"qty":4},
    {"id":296,"name":"Anthiathia","price":5,"qty":8},
    {"id":297,"name":"Bary","price":27,"qty":6},
    {"id":298,"name":"Friederike","price":28,"qty":5},
    {"id":299,"name":"Alfonse","price":10,"qty":1},
    {"id":300,"name":"Agna","price":87,"qty":8},
    {"id":301,"name":"Kath","price":100,"qty":7},
    {"id":302,"name":"Katy","price":5,"qty":6},
    {"id":303,"name":"Lynna","price":10,"qty":7},
    {"id":304,"name":"Sallyanne","price":8,"qty":6},
    {"id":305,"name":"Candra","price":40,"qty":8},
    {"id":306,"name":"Peg","price":96,"qty":10},
    {"id":307,"name":"Thorny","price":84,"qty":5},
    {"id":308,"name":"Andriana","price":56,"qty":2},
    {"id":309,"name":"Atlante","price":84,"qty":7},
    {"id":310,"name":"Cariotta","price":70,"qty":8},
    {"id":311,"name":"Josi","price":10,"qty":4},
    {"id":312,"name":"Shelia","price":71,"qty":7},
    {"id":313,"name":"Daisie","price":78,"qty":9},
    {"id":314,"name":"Aluin","price":7,"qty":6},
    {"id":315,"name":"Renelle","price":91,"qty":8},
    {"id":316,"name":"Annalise","price":14,"qty":9},
    {"id":317,"name":"Gallard","price":65,"qty":3},
    {"id":318,"name":"Cynthia","price":82,"qty":3},
    {"id":319,"name":"Jehu","price":64,"qty":2},
    {"id":320,"name":"Cordi","price":27,"qty":3},
    {"id":321,"name":"Forrest","price":77,"qty":2},
    {"id":322,"name":"Binnie","price":39,"qty":3},
    {"id":323,"name":"Caril","price":4,"qty":1},
    {"id":324,"name":"Stanislas","price":75,"qty":10},
    {"id":325,"name":"Kurt","price":17,"qty":9},
    {"id":326,"name":"Ambrosio","price":45,"qty":10},
    {"id":327,"name":"Aurlie","price":41,"qty":2},
    {"id":328,"name":"Margeaux","price":20,"qty":4},
    {"id":329,"name":"Kellby","price":54,"qty":3},
    {"id":330,"name":"Anton","price":84,"qty":7},
    {"id":331,"name":"Alejandro","price":30,"qty":9},
    {"id":332,"name":"Morgana","price":12,"qty":1},
    {"id":333,"name":"Katleen","price":88,"qty":2},
    {"id":334,"name":"Jock","price":1,"qty":9},
    {"id":335,"name":"Stanfield","price":53,"qty":8},
    {"id":336,"name":"Elyse","price":28,"qty":5},
    {"id":337,"name":"Fairfax","price":5,"qty":5},
    {"id":338,"name":"Kalli","price":45,"qty":4},
    {"id":339,"name":"Katharina","price":17,"qty":8},
    {"id":340,"name":"Faythe","price":64,"qty":6},
    {"id":341,"name":"Clovis","price":88,"qty":5},
    {"id":342,"name":"Kyrstin","price":30,"qty":7},
    {"id":343,"name":"Ilysa","price":54,"qty":2},
    {"id":344,"name":"Fernande","price":46,"qty":10},
    {"id":345,"name":"Walton","price":23,"qty":9},
    {"id":346,"name":"Cord","price":77,"qty":5},
    {"id":347,"name":"Dotti","price":11,"qty":9},
    {"id":348,"name":"Bogey","price":66,"qty":10},
    {"id":349,"name":"Andy","price":25,"qty":8},
    {"id":350,"name":"Lucita","price":99,"qty":8},
    {"id":351,"name":"Janelle","price":38,"qty":1},
    {"id":352,"name":"Allister","price":61,"qty":3},
    {"id":353,"name":"Wallis","price":100,"qty":3},
    {"id":354,"name":"Melisandra","price":12,"qty":8},
    {"id":355,"name":"Gayle","price":13,"qty":8},
    {"id":356,"name":"Gabrielle","price":5,"qty":2},
    {"id":357,"name":"Dulcia","price":83,"qty":2},
    {"id":358,"name":"Cart","price":65,"qty":7},
    {"id":359,"name":"Ingaborg","price":38,"qty":10},
    {"id":360,"name":"Giffie","price":10,"qty":7},
    {"id":361,"name":"Katrina","price":23,"qty":5},
    {"id":362,"name":"Troy","price":82,"qty":6},
    {"id":363,"name":"Nealy","price":65,"qty":4},
    {"id":364,"name":"Derwin","price":46,"qty":6},
    {"id":365,"name":"Maryl","price":100,"qty":3},
    {"id":366,"name":"Leopold","price":17,"qty":1},
    {"id":367,"name":"Libbey","price":64,"qty":8},
    {"id":368,"name":"Brigham","price":7,"qty":2},
    {"id":369,"name":"Emmit","price":63,"qty":5},
    {"id":370,"name":"Doug","price":87,"qty":5},
    {"id":371,"name":"Nikki","price":94,"qty":9},
    {"id":372,"name":"Chester","price":61,"qty":9},
    {"id":373,"name":"Clarette","price":32,"qty":7},
    {"id":374,"name":"Mahalia","price":38,"qty":5},
    {"id":375,"name":"Whittaker","price":81,"qty":7},
    {"id":376,"name":"Joly","price":39,"qty":10},
    {"id":377,"name":"Stephani","price":86,"qty":6},
    {"id":378,"name":"Artemas","price":18,"qty":8},
    {"id":379,"name":"Domini","price":71,"qty":9},
    {"id":380,"name":"Woodrow","price":52,"qty":1},
    {"id":381,"name":"Buck","price":79,"qty":2},
    {"id":382,"name":"Bernarr","price":83,"qty":4},
    {"id":383,"name":"Germain","price":5,"qty":6},
    {"id":384,"name":"Evania","price":99,"qty":1},
    {"id":385,"name":"Vivienne","price":26,"qty":6},
    {"id":386,"name":"Wilt","price":81,"qty":1},
    {"id":387,"name":"Debor","price":47,"qty":1},
    {"id":388,"name":"Dominica","price":36,"qty":10},
    {"id":389,"name":"Jolene","price":63,"qty":5},
    {"id":390,"name":"Jessika","price":38,"qty":8},
    {"id":391,"name":"Philipa","price":59,"qty":9},
    {"id":392,"name":"Blisse","price":83,"qty":6},
    {"id":393,"name":"Valentina","price":86,"qty":7},
    {"id":394,"name":"Kordula","price":60,"qty":8},
    {"id":395,"name":"Deeann","price":9,"qty":2},
    {"id":396,"name":"Amelita","price":45,"qty":4},
    {"id":397,"name":"Sascha","price":60,"qty":4},
    {"id":398,"name":"Clarisse","price":80,"qty":6},
    {"id":399,"name":"Allis","price":85,"qty":9},
    {"id":400,"name":"Innis","price":60,"qty":6},
    {"id":401,"name":"Laura","price":17,"qty":10},
    {"id":402,"name":"Paco","price":1,"qty":1},
    {"id":403,"name":"Alasdair","price":86,"qty":8},
    {"id":404,"name":"Griz","price":21,"qty":10},
    {"id":405,"name":"Binny","price":81,"qty":3},
    {"id":406,"name":"Rollie","price":38,"qty":5},
    {"id":407,"name":"Caroljean","price":44,"qty":2},
    {"id":408,"name":"Euphemia","price":60,"qty":8},
    {"id":409,"name":"Halette","price":3,"qty":6},
    {"id":410,"name":"Clem","price":25,"qty":1},
    {"id":411,"name":"Cassey","price":74,"qty":5},
    {"id":412,"name":"Michaelina","price":37,"qty":8},
    {"id":413,"name":"Quentin","price":36,"qty":6},
    {"id":414,"name":"Morgen","price":49,"qty":7},
    {"id":415,"name":"Evonne","price":43,"qty":4},
    {"id":416,"name":"Oralie","price":48,"qty":2},
    {"id":417,"name":"Saundra","price":7,"qty":8},
    {"id":418,"name":"Vivi","price":99,"qty":2},
    {"id":419,"name":"Jonathan","price":16,"qty":2},
    {"id":420,"name":"Helsa","price":45,"qty":9},
    {"id":421,"name":"Tabina","price":6,"qty":6},
    {"id":422,"name":"Anthe","price":52,"qty":4},
    {"id":423,"name":"Lydie","price":79,"qty":2},
    {"id":424,"name":"Ingeberg","price":54,"qty":8},
    {"id":425,"name":"Durand","price":48,"qty":8},
    {"id":426,"name":"Regen","price":34,"qty":8},
    {"id":427,"name":"Costanza","price":90,"qty":4},
    {"id":428,"name":"Teresa","price":81,"qty":9},
    {"id":429,"name":"Mic","price":26,"qty":2},
    {"id":430,"name":"Osmund","price":86,"qty":6},
    {"id":431,"name":"Stacia","price":39,"qty":4},
    {"id":432,"name":"Daron","price":78,"qty":4},
    {"id":433,"name":"Nataline","price":94,"qty":4},
    {"id":434,"name":"Anatol","price":16,"qty":6},
    {"id":435,"name":"Sammy","price":97,"qty":3},
    {"id":436,"name":"Mahmoud","price":18,"qty":7},
    {"id":437,"name":"Robbie","price":70,"qty":1},
    {"id":438,"name":"Kerri","price":43,"qty":5},
    {"id":439,"name":"Delphine","price":82,"qty":10},
    {"id":440,"name":"Jeremias","price":84,"qty":10},
    {"id":441,"name":"Free","price":39,"qty":9},
    {"id":442,"name":"Andriette","price":73,"qty":7},
    {"id":443,"name":"Conan","price":64,"qty":3},
    {"id":444,"name":"Adora","price":69,"qty":7},
    {"id":445,"name":"Kaile","price":8,"qty":4},
    {"id":446,"name":"Chrystal","price":18,"qty":8},
    {"id":447,"name":"Errick","price":7,"qty":9},
    {"id":448,"name":"Franky","price":46,"qty":2},
    {"id":449,"name":"Michaeline","price":10,"qty":3},
    {"id":450,"name":"Hallie","price":49,"qty":10},
    {"id":451,"name":"Sharla","price":91,"qty":10},
    {"id":452,"name":"Josy","price":44,"qty":4},
    {"id":453,"name":"Giffard","price":77,"qty":5},
    {"id":454,"name":"Lorenza","price":15,"qty":10},
    {"id":455,"name":"Jeffry","price":93,"qty":7},
    {"id":456,"name":"Lyndsey","price":68,"qty":1},
    {"id":457,"name":"Stephanus","price":51,"qty":6},
    {"id":458,"name":"Daveta","price":99,"qty":1},
    {"id":459,"name":"Celle","price":59,"qty":4},
    {"id":460,"name":"Erin","price":52,"qty":9},
    {"id":461,"name":"Sibylle","price":12,"qty":2},
    {"id":462,"name":"Findley","price":31,"qty":10},
    {"id":463,"name":"Mauricio","price":25,"qty":10},
    {"id":464,"name":"Farlee","price":23,"qty":2},
    {"id":465,"name":"Celisse","price":57,"qty":7},
    {"id":466,"name":"Tarah","price":9,"qty":4},
    {"id":467,"name":"Humphrey","price":64,"qty":10},
    {"id":468,"name":"Isobel","price":23,"qty":9},
    {"id":469,"name":"Heywood","price":35,"qty":8},
    {"id":470,"name":"Hal","price":33,"qty":1},
    {"id":471,"name":"Joice","price":13,"qty":10},
    {"id":472,"name":"Caprice","price":80,"qty":2},
    {"id":473,"name":"Raff","price":95,"qty":6},
    {"id":474,"name":"Shellie","price":49,"qty":8},
    {"id":475,"name":"Mella","price":92,"qty":7},
    {"id":476,"name":"Tomi","price":88,"qty":1},
    {"id":477,"name":"Marc","price":81,"qty":3},
    {"id":478,"name":"Alla","price":6,"qty":7},
    {"id":479,"name":"Floyd","price":3,"qty":7},
    {"id":480,"name":"Betteanne","price":21,"qty":5},
    {"id":481,"name":"Justen","price":81,"qty":9},
    {"id":482,"name":"Carree","price":39,"qty":9},
    {"id":483,"name":"Allie","price":70,"qty":10},
    {"id":484,"name":"Efrem","price":78,"qty":1},
    {"id":485,"name":"Claudell","price":4,"qty":6},
    {"id":486,"name":"Tades","price":76,"qty":6},
    {"id":487,"name":"Ralina","price":1,"qty":6},
    {"id":488,"name":"Jillane","price":17,"qty":5},
    {"id":489,"name":"Kizzie","price":74,"qty":7},
    {"id":490,"name":"Trescha","price":66,"qty":8},
    {"id":491,"name":"Rosina","price":27,"qty":7},
    {"id":492,"name":"Beret","price":29,"qty":3},
    {"id":493,"name":"Darrel","price":26,"qty":10},
    {"id":494,"name":"Munroe","price":11,"qty":4},
    {"id":495,"name":"Robert","price":76,"qty":6},
    {"id":496,"name":"Harmonia","price":15,"qty":9},
    {"id":497,"name":"Doralyn","price":60,"qty":9},
    {"id":498,"name":"Otis","price":66,"qty":2},
    {"id":499,"name":"Mellisent","price":59,"qty":5},
    {"id":500,"name":"Alleyn","price":80,"qty":7},
    {"id":501,"name":"Katee","price":99,"qty":5},
    {"id":502,"name":"Raoul","price":68,"qty":7},
    {"id":503,"name":"Wilbert","price":32,"qty":5},
    {"id":504,"name":"Sammy","price":61,"qty":2},
    {"id":505,"name":"Dulcia","price":34,"qty":1},
    {"id":506,"name":"Bobbie","price":39,"qty":5},
    {"id":507,"name":"Price","price":59,"qty":2},
    {"id":508,"name":"Bentley","price":80,"qty":2},
    {"id":509,"name":"Levy","price":29,"qty":5},
    {"id":510,"name":"Mordy","price":74,"qty":3},
    {"id":511,"name":"Orlando","price":59,"qty":9},
    {"id":512,"name":"Janot","price":66,"qty":9},
    {"id":513,"name":"Christean","price":99,"qty":1},
    {"id":514,"name":"Lauralee","price":15,"qty":7},
    {"id":515,"name":"Dodi","price":89,"qty":1},
    {"id":516,"name":"Hermy","price":14,"qty":3},
    {"id":517,"name":"Tallulah","price":74,"qty":9},
    {"id":518,"name":"Torrey","price":22,"qty":1},
    {"id":519,"name":"Jordain","price":37,"qty":8},
    {"id":520,"name":"Kristin","price":22,"qty":7},
    {"id":521,"name":"Sally","price":65,"qty":2},
    {"id":522,"name":"Shandy","price":55,"qty":8},
    {"id":523,"name":"Cherice","price":43,"qty":3},
    {"id":524,"name":"Barthel","price":5,"qty":6},
    {"id":525,"name":"Maryjane","price":75,"qty":8},
    {"id":526,"name":"Masha","price":89,"qty":1},
    {"id":527,"name":"Annelise","price":50,"qty":6},
    {"id":528,"name":"Camile","price":81,"qty":2},
    {"id":529,"name":"Gwendolin","price":49,"qty":4},
    {"id":530,"name":"Electra","price":86,"qty":4},
    {"id":531,"name":"Remy","price":84,"qty":7},
    {"id":532,"name":"Traci","price":98,"qty":2},
    {"id":533,"name":"Bria","price":70,"qty":6},
    {"id":534,"name":"Berny","price":21,"qty":4},
    {"id":535,"name":"Borden","price":47,"qty":7},
    {"id":536,"name":"Cassandry","price":59,"qty":6},
    {"id":537,"name":"Bern","price":76,"qty":10},
    {"id":538,"name":"Eadmund","price":47,"qty":6},
    {"id":539,"name":"Clywd","price":61,"qty":8},
    {"id":540,"name":"Livvy","price":69,"qty":8},
    {"id":541,"name":"Freeman","price":66,"qty":5},
    {"id":542,"name":"Dotti","price":15,"qty":7},
    {"id":543,"name":"Haydon","price":59,"qty":5},
    {"id":544,"name":"Mavra","price":67,"qty":4},
    {"id":545,"name":"Morty","price":20,"qty":8},
    {"id":546,"name":"Vincents","price":98,"qty":4},
    {"id":547,"name":"Noelani","price":93,"qty":3},
    {"id":548,"name":"Palm","price":28,"qty":8},
    {"id":549,"name":"Stanley","price":58,"qty":9},
    {"id":550,"name":"Roanna","price":44,"qty":10},
    {"id":551,"name":"Lesley","price":36,"qty":4},
    {"id":552,"name":"Wilmette","price":37,"qty":8},
    {"id":553,"name":"Van","price":71,"qty":1},
    {"id":554,"name":"Chev","price":4,"qty":5},
    {"id":555,"name":"Rufus","price":30,"qty":2},
    {"id":556,"name":"Kaila","price":9,"qty":1},
    {"id":557,"name":"Dev","price":90,"qty":3},
    {"id":558,"name":"Gannon","price":71,"qty":5},
    {"id":559,"name":"Pet","price":40,"qty":8},
    {"id":560,"name":"Davey","price":77,"qty":7},
    {"id":561,"name":"Walker","price":98,"qty":9},
    {"id":562,"name":"Joella","price":22,"qty":4},
    {"id":563,"name":"Chan","price":68,"qty":7},
    {"id":564,"name":"Edithe","price":96,"qty":10},
    {"id":565,"name":"Ferne","price":86,"qty":2},
    {"id":566,"name":"Archaimbaud","price":99,"qty":4},
    {"id":567,"name":"Sarajane","price":66,"qty":8},
    {"id":568,"name":"Erina","price":18,"qty":4},
    {"id":569,"name":"Shoshana","price":41,"qty":7},
    {"id":570,"name":"Barbabas","price":24,"qty":10},
    {"id":571,"name":"Kristy","price":72,"qty":5},
    {"id":572,"name":"Lief","price":95,"qty":10},
    {"id":573,"name":"Meade","price":22,"qty":7},
    {"id":574,"name":"Tuckie","price":68,"qty":2},
    {"id":575,"name":"Stephenie","price":48,"qty":4},
    {"id":576,"name":"Kendell","price":35,"qty":10},
    {"id":577,"name":"Bernetta","price":98,"qty":4},
    {"id":578,"name":"Micki","price":28,"qty":5},
    {"id":579,"name":"Demetri","price":57,"qty":2},
    {"id":580,"name":"Adrianne","price":51,"qty":7},
    {"id":581,"name":"Gretna","price":14,"qty":7},
    {"id":582,"name":"Bethena","price":39,"qty":5},
    {"id":583,"name":"Vaughan","price":10,"qty":7},
    {"id":584,"name":"Jeni","price":97,"qty":4},
    {"id":585,"name":"Olivie","price":88,"qty":3},
    {"id":586,"name":"Hyacinthia","price":98,"qty":7},
    {"id":587,"name":"Cissiee","price":18,"qty":5},
    {"id":588,"name":"Colene","price":83,"qty":4},
    {"id":589,"name":"Giordano","price":25,"qty":7},
    {"id":590,"name":"Shawn","price":83,"qty":6},
    {"id":591,"name":"Garret","price":31,"qty":2},
    {"id":592,"name":"Nathanil","price":91,"qty":3},
    {"id":593,"name":"Monro","price":57,"qty":4},
    {"id":594,"name":"Davie","price":72,"qty":4},
    {"id":595,"name":"Berny","price":8,"qty":8},
    {"id":596,"name":"Sonni","price":7,"qty":3},
    {"id":597,"name":"Steffi","price":57,"qty":9},
    {"id":598,"name":"Gail","price":36,"qty":5},
    {"id":599,"name":"Hatti","price":57,"qty":10},
    {"id":600,"name":"Tull","price":34,"qty":5},
    {"id":601,"name":"Rebe","price":75,"qty":2},
    {"id":602,"name":"Isaiah","price":56,"qty":9},
    {"id":603,"name":"Matteo","price":66,"qty":9},
    {"id":604,"name":"Seymour","price":100,"qty":9},
    {"id":605,"name":"Cazzie","price":89,"qty":10},
    {"id":606,"name":"Lazar","price":97,"qty":6},
    {"id":607,"name":"Benito","price":71,"qty":3},
    {"id":608,"name":"Kalila","price":3,"qty":1},
    {"id":609,"name":"Gabriele","price":34,"qty":9},
    {"id":610,"name":"Devinne","price":22,"qty":5},
    {"id":611,"name":"Duncan","price":73,"qty":2},
    {"id":612,"name":"Liv","price":55,"qty":8},
    {"id":613,"name":"Brion","price":65,"qty":6},
    {"id":614,"name":"Jules","price":16,"qty":9},
    {"id":615,"name":"Hanny","price":8,"qty":7},
    {"id":616,"name":"Lenka","price":5,"qty":8},
    {"id":617,"name":"Quincy","price":77,"qty":1},
    {"id":618,"name":"Sibbie","price":32,"qty":10},
    {"id":619,"name":"Chicky","price":25,"qty":1},
    {"id":620,"name":"Gualterio","price":100,"qty":8},
    {"id":621,"name":"Sherilyn","price":75,"qty":7},
    {"id":622,"name":"Selinda","price":98,"qty":4},
    {"id":623,"name":"Cristian","price":55,"qty":4},
    {"id":624,"name":"Peria","price":36,"qty":6},
    {"id":625,"name":"Bevan","price":87,"qty":10},
    {"id":626,"name":"Bettina","price":46,"qty":5},
    {"id":627,"name":"Rodolph","price":78,"qty":8},
    {"id":628,"name":"Kassi","price":58,"qty":2},
    {"id":629,"name":"Kristopher","price":67,"qty":9},
    {"id":630,"name":"Meriel","price":73,"qty":8},
    {"id":631,"name":"Codi","price":6,"qty":10},
    {"id":632,"name":"Gerhard","price":20,"qty":2},
    {"id":633,"name":"Cori","price":45,"qty":6},
    {"id":634,"name":"Sonnie","price":28,"qty":4},
    {"id":635,"name":"Caty","price":45,"qty":6},
    {"id":636,"name":"Gerhardt","price":27,"qty":2},
    {"id":637,"name":"Whitman","price":30,"qty":1},
    {"id":638,"name":"Roch","price":73,"qty":2},
    {"id":639,"name":"Linnie","price":72,"qty":9},
    {"id":640,"name":"Lyman","price":73,"qty":7},
    {"id":641,"name":"Leena","price":48,"qty":9},
    {"id":642,"name":"Ramsey","price":61,"qty":1},
    {"id":643,"name":"Evered","price":14,"qty":10},
    {"id":644,"name":"Win","price":23,"qty":1},
    {"id":645,"name":"Ellerey","price":22,"qty":1},
    {"id":646,"name":"Tiphani","price":83,"qty":6},
    {"id":647,"name":"Whitby","price":56,"qty":9},
    {"id":648,"name":"Garret","price":65,"qty":2},
    {"id":649,"name":"Lucina","price":80,"qty":3},
    {"id":650,"name":"Wolfgang","price":95,"qty":2},
    {"id":651,"name":"Myra","price":21,"qty":10},
    {"id":652,"name":"Nathanial","price":24,"qty":10},
    {"id":653,"name":"Mira","price":14,"qty":5},
    {"id":654,"name":"Constantine","price":51,"qty":3},
    {"id":655,"name":"Dalila","price":5,"qty":2},
    {"id":656,"name":"Tanhya","price":71,"qty":6},
    {"id":657,"name":"Nikolai","price":84,"qty":2},
    {"id":658,"name":"Cammy","price":73,"qty":4},
    {"id":659,"name":"Godfry","price":90,"qty":8},
    {"id":660,"name":"Sydel","price":20,"qty":4},
    {"id":661,"name":"Alfi","price":39,"qty":5},
    {"id":662,"name":"Kermie","price":39,"qty":1},
    {"id":663,"name":"Kacey","price":30,"qty":9},
    {"id":664,"name":"Scarface","price":63,"qty":1},
    {"id":665,"name":"Lindy","price":89,"qty":8},
    {"id":666,"name":"Clareta","price":50,"qty":2},
    {"id":667,"name":"Inglis","price":72,"qty":7},
    {"id":668,"name":"Mary","price":71,"qty":10},
    {"id":669,"name":"Hollis","price":10,"qty":2},
    {"id":670,"name":"Marijn","price":10,"qty":4},
    {"id":671,"name":"Vinny","price":35,"qty":8},
    {"id":672,"name":"Elonore","price":97,"qty":6},
    {"id":673,"name":"Laughton","price":95,"qty":7},
    {"id":674,"name":"Francine","price":8,"qty":3},
    {"id":675,"name":"Merwyn","price":51,"qty":4},
    {"id":676,"name":"Angele","price":36,"qty":2},
    {"id":677,"name":"Emelen","price":85,"qty":3},
    {"id":678,"name":"Genevieve","price":70,"qty":9},
    {"id":679,"name":"Kriste","price":20,"qty":6},
    {"id":680,"name":"Emylee","price":18,"qty":8},
    {"id":681,"name":"Orelee","price":93,"qty":4},
    {"id":682,"name":"Monte","price":43,"qty":10},
    {"id":683,"name":"Kippy","price":5,"qty":6},
    {"id":684,"name":"Eal","price":4,"qty":2},
    {"id":685,"name":"Gardy","price":15,"qty":4},
    {"id":686,"name":"Wendy","price":25,"qty":8},
    {"id":687,"name":"Benny","price":32,"qty":3},
    {"id":688,"name":"Thorin","price":89,"qty":4},
    {"id":689,"name":"Vikky","price":68,"qty":7},
    {"id":690,"name":"Em","price":64,"qty":2},
    {"id":691,"name":"Casandra","price":18,"qty":3},
    {"id":692,"name":"Cassandra","price":47,"qty":6},
    {"id":693,"name":"Darnall","price":21,"qty":10},
    {"id":694,"name":"Clementius","price":80,"qty":3},
    {"id":695,"name":"Barb","price":32,"qty":10},
    {"id":696,"name":"Dody","price":1,"qty":2},
    {"id":697,"name":"Gwendolyn","price":95,"qty":2},
    {"id":698,"name":"Sandy","price":100,"qty":7},
    {"id":699,"name":"Velvet","price":9,"qty":7},
    {"id":700,"name":"Cora","price":9,"qty":10},
    {"id":701,"name":"Nathanial","price":56,"qty":6},
    {"id":702,"name":"Thornie","price":92,"qty":10},
    {"id":703,"name":"Jerri","price":53,"qty":1},
    {"id":704,"name":"Ashil","price":18,"qty":4},
    {"id":705,"name":"Lezlie","price":49,"qty":3},
    {"id":706,"name":"Cyril","price":20,"qty":7},
    {"id":707,"name":"Reed","price":91,"qty":3},
    {"id":708,"name":"Gregg","price":6,"qty":5},
    {"id":709,"name":"Kelwin","price":32,"qty":9},
    {"id":710,"name":"Fin","price":100,"qty":9},
    {"id":711,"name":"Vinny","price":51,"qty":4},
    {"id":712,"name":"Netty","price":77,"qty":3},
    {"id":713,"name":"Quentin","price":97,"qty":3},
    {"id":714,"name":"Guillemette","price":8,"qty":5},
    {"id":715,"name":"Hewitt","price":90,"qty":4},
    {"id":716,"name":"Candra","price":13,"qty":4},
    {"id":717,"name":"Sydney","price":65,"qty":8},
    {"id":718,"name":"Marcel","price":60,"qty":5},
    {"id":719,"name":"Dall","price":13,"qty":3},
    {"id":720,"name":"Nevile","price":29,"qty":1},
    {"id":721,"name":"Mikol","price":15,"qty":10},
    {"id":722,"name":"Kendricks","price":21,"qty":5},
    {"id":723,"name":"Scott","price":34,"qty":6},
    {"id":724,"name":"Prudi","price":86,"qty":8},
    {"id":725,"name":"Rici","price":97,"qty":10},
    {"id":726,"name":"Rod","price":46,"qty":9},
    {"id":727,"name":"Consuela","price":95,"qty":9},
    {"id":728,"name":"Sylvester","price":48,"qty":6},
    {"id":729,"name":"Thornie","price":82,"qty":6},
    {"id":730,"name":"Sibyl","price":73,"qty":4},
    {"id":731,"name":"Udall","price":49,"qty":4},
    {"id":732,"name":"Birgit","price":73,"qty":4},
    {"id":733,"name":"Gar","price":76,"qty":8},
    {"id":734,"name":"Tan","price":98,"qty":5},
    {"id":735,"name":"Mathew","price":86,"qty":1},
    {"id":736,"name":"Rolfe","price":84,"qty":6},
    {"id":737,"name":"Conrad","price":82,"qty":3},
    {"id":738,"name":"Nydia","price":67,"qty":8},
    {"id":739,"name":"Marrissa","price":31,"qty":1},
    {"id":740,"name":"Juli","price":23,"qty":10},
    {"id":741,"name":"Mohammed","price":30,"qty":7},
    {"id":742,"name":"Belle","price":12,"qty":2},
    {"id":743,"name":"Broderick","price":63,"qty":9},
    {"id":744,"name":"Shellie","price":45,"qty":4},
    {"id":745,"name":"Sollie","price":52,"qty":6},
    {"id":746,"name":"Camille","price":24,"qty":4},
    {"id":747,"name":"Breanne","price":26,"qty":1},
    {"id":748,"name":"Kissiah","price":44,"qty":10},
    {"id":749,"name":"Park","price":66,"qty":7},
    {"id":750,"name":"Bernarr","price":84,"qty":4},
    {"id":751,"name":"Retha","price":9,"qty":4},
    {"id":752,"name":"Dulcine","price":74,"qty":6},
    {"id":753,"name":"Siffre","price":52,"qty":10},
    {"id":754,"name":"Karim","price":72,"qty":1},
    {"id":755,"name":"Kristo","price":89,"qty":2},
    {"id":756,"name":"Cull","price":56,"qty":7},
    {"id":757,"name":"Lavina","price":89,"qty":9},
    {"id":758,"name":"Desirae","price":45,"qty":6},
    {"id":759,"name":"Gamaliel","price":19,"qty":10},
    {"id":760,"name":"Elvina","price":93,"qty":6},
    {"id":761,"name":"Prudy","price":87,"qty":1},
    {"id":762,"name":"Josh","price":21,"qty":1},
    {"id":763,"name":"Margarita","price":16,"qty":4},
    {"id":764,"name":"Colby","price":98,"qty":5},
    {"id":765,"name":"Barron","price":67,"qty":2},
    {"id":766,"name":"Odille","price":54,"qty":10},
    {"id":767,"name":"Elyn","price":10,"qty":6},
    {"id":768,"name":"Mike","price":59,"qty":1},
    {"id":769,"name":"Odetta","price":54,"qty":4},
    {"id":770,"name":"Stefano","price":73,"qty":4},
    {"id":771,"name":"Sherie","price":55,"qty":7},
    {"id":772,"name":"Micheil","price":7,"qty":1},
    {"id":773,"name":"Eldredge","price":68,"qty":5},
    {"id":774,"name":"Frannie","price":28,"qty":5},
    {"id":775,"name":"Margalit","price":79,"qty":10},
    {"id":776,"name":"Essa","price":10,"qty":9},
    {"id":777,"name":"Kelly","price":1,"qty":4},
    {"id":778,"name":"Christine","price":6,"qty":8},
    {"id":779,"name":"Kale","price":5,"qty":4},
    {"id":780,"name":"Jedd","price":30,"qty":3},
    {"id":781,"name":"Leonora","price":52,"qty":1},
    {"id":782,"name":"Tiebold","price":14,"qty":10},
    {"id":783,"name":"Paige","price":72,"qty":3},
    {"id":784,"name":"Clarisse","price":73,"qty":10},
    {"id":785,"name":"Yule","price":60,"qty":2},
    {"id":786,"name":"Joshua","price":12,"qty":5},
    {"id":787,"name":"Saunder","price":16,"qty":1},
    {"id":788,"name":"Sher","price":97,"qty":9},
    {"id":789,"name":"Chilton","price":77,"qty":8},
    {"id":790,"name":"Kathye","price":46,"qty":5},
    {"id":791,"name":"Elva","price":22,"qty":8},
    {"id":792,"name":"Wilone","price":20,"qty":3},
    {"id":793,"name":"Zackariah","price":16,"qty":10},
    {"id":794,"name":"Luise","price":50,"qty":1},
    {"id":795,"name":"Ginelle","price":56,"qty":8},
    {"id":796,"name":"Tristan","price":87,"qty":2},
    {"id":797,"name":"Luce","price":70,"qty":8},
    {"id":798,"name":"Noelyn","price":25,"qty":2},
    {"id":799,"name":"Rennie","price":49,"qty":7},
    {"id":800,"name":"Vivianne","price":39,"qty":6},
    {"id":801,"name":"Lea","price":52,"qty":7},
    {"id":802,"name":"Dorelia","price":91,"qty":1},
    {"id":803,"name":"Peta","price":68,"qty":6},
    {"id":804,"name":"Fan","price":69,"qty":8},
    {"id":805,"name":"Corbet","price":92,"qty":7},
    {"id":806,"name":"Alexia","price":49,"qty":3},
    {"id":807,"name":"Shandy","price":83,"qty":10},
    {"id":808,"name":"Lotty","price":81,"qty":2},
    {"id":809,"name":"Ashly","price":11,"qty":10},
    {"id":810,"name":"Georgy","price":84,"qty":3},
    {"id":811,"name":"Marjy","price":39,"qty":7},
    {"id":812,"name":"Matthew","price":98,"qty":5},
    {"id":813,"name":"Lou","price":99,"qty":8},
    {"id":814,"name":"Lucine","price":22,"qty":2},
    {"id":815,"name":"Myrvyn","price":47,"qty":2},
    {"id":816,"name":"Denny","price":6,"qty":10},
    {"id":817,"name":"Jeddy","price":9,"qty":7},
    {"id":818,"name":"Norby","price":31,"qty":2},
    {"id":819,"name":"Evvie","price":70,"qty":10},
    {"id":820,"name":"Hedwig","price":86,"qty":4},
    {"id":821,"name":"Morna","price":91,"qty":7},
    {"id":822,"name":"Collen","price":29,"qty":10},
    {"id":823,"name":"Lethia","price":39,"qty":6},
    {"id":824,"name":"Agustin","price":66,"qty":10},
    {"id":825,"name":"Blinny","price":48,"qty":10},
    {"id":826,"name":"Angy","price":72,"qty":9},
    {"id":827,"name":"Deborah","price":9,"qty":4},
    {"id":828,"name":"Karlis","price":58,"qty":3},
    {"id":829,"name":"Lorens","price":61,"qty":7},
    {"id":830,"name":"Adler","price":97,"qty":9},
    {"id":831,"name":"Cahra","price":56,"qty":6},
    {"id":832,"name":"Caddric","price":55,"qty":7},
    {"id":833,"name":"Francois","price":31,"qty":3},
    {"id":834,"name":"Enrichetta","price":27,"qty":4},
    {"id":835,"name":"Cleon","price":38,"qty":2},
    {"id":836,"name":"Talia","price":84,"qty":8},
    {"id":837,"name":"Danit","price":94,"qty":9},
    {"id":838,"name":"Wilbert","price":93,"qty":9},
    {"id":839,"name":"Carey","price":34,"qty":10},
    {"id":840,"name":"Rawley","price":84,"qty":1},
    {"id":841,"name":"Issie","price":27,"qty":3},
    {"id":842,"name":"Brendin","price":29,"qty":5},
    {"id":843,"name":"Sigismundo","price":34,"qty":4},
    {"id":844,"name":"Niall","price":10,"qty":10},
    {"id":845,"name":"Bari","price":87,"qty":10},
    {"id":846,"name":"Georgetta","price":8,"qty":1},
    {"id":847,"name":"Averell","price":27,"qty":5},
    {"id":848,"name":"Mohandas","price":96,"qty":5},
    {"id":849,"name":"Bel","price":72,"qty":8},
    {"id":850,"name":"Josiah","price":23,"qty":1},
    {"id":851,"name":"Idell","price":43,"qty":10},
    {"id":852,"name":"Lynda","price":78,"qty":9},
    {"id":853,"name":"Luciano","price":54,"qty":3},
    {"id":854,"name":"Kacie","price":72,"qty":4},
    {"id":855,"name":"Kristoffer","price":44,"qty":7},
    {"id":856,"name":"Kimmie","price":79,"qty":10},
    {"id":857,"name":"Bari","price":54,"qty":7},
    {"id":858,"name":"Myca","price":84,"qty":9},
    {"id":859,"name":"Jacynth","price":99,"qty":3},
    {"id":860,"name":"Leonore","price":25,"qty":5},
    {"id":861,"name":"Keir","price":83,"qty":10},
    {"id":862,"name":"Dosi","price":91,"qty":6},
    {"id":863,"name":"Annabel","price":57,"qty":7},
    {"id":864,"name":"Cecil","price":82,"qty":8},
    {"id":865,"name":"Padraic","price":79,"qty":7},
    {"id":866,"name":"Micheal","price":45,"qty":4},
    {"id":867,"name":"Chrotoem","price":8,"qty":4},
    {"id":868,"name":"Nadean","price":57,"qty":7},
    {"id":869,"name":"Claire","price":44,"qty":6},
    {"id":870,"name":"Arlin","price":10,"qty":10},
    {"id":871,"name":"Mac","price":83,"qty":10},
    {"id":872,"name":"Una","price":94,"qty":8},
    {"id":873,"name":"Marney","price":19,"qty":3},
    {"id":874,"name":"Zia","price":85,"qty":7},
    {"id":875,"name":"Caren","price":58,"qty":7},
    {"id":876,"name":"Giffie","price":96,"qty":4},
    {"id":877,"name":"Carlo","price":53,"qty":7},
    {"id":878,"name":"Torrey","price":1,"qty":6},
    {"id":879,"name":"Barn","price":63,"qty":6},
    {"id":880,"name":"Loella","price":35,"qty":1},
    {"id":881,"name":"Darya","price":6,"qty":6},
    {"id":882,"name":"Rianon","price":69,"qty":8},
    {"id":883,"name":"Davis","price":31,"qty":1},
    {"id":884,"name":"Emmit","price":58,"qty":2},
    {"id":885,"name":"Allison","price":55,"qty":4},
    {"id":886,"name":"Morty","price":16,"qty":1},
    {"id":887,"name":"Maude","price":74,"qty":4},
    {"id":888,"name":"Vidovic","price":96,"qty":3},
    {"id":889,"name":"Leicester","price":98,"qty":9},
    {"id":890,"name":"Josey","price":47,"qty":8},
    {"id":891,"name":"Marillin","price":30,"qty":4},
    {"id":892,"name":"Ambrosi","price":40,"qty":3},
    {"id":893,"name":"Jamie","price":42,"qty":10},
    {"id":894,"name":"Casar","price":2,"qty":3},
    {"id":895,"name":"Keven","price":29,"qty":1},
    {"id":896,"name":"Chrisse","price":95,"qty":5},
    {"id":897,"name":"Shaun","price":39,"qty":10},
    {"id":898,"name":"Kassia","price":52,"qty":7},
    {"id":899,"name":"Torrie","price":33,"qty":2},
    {"id":900,"name":"Svend","price":5,"qty":1},
    {"id":901,"name":"Farly","price":27,"qty":7},
    {"id":902,"name":"Hoyt","price":52,"qty":8},
    {"id":903,"name":"Johannah","price":61,"qty":5},
    {"id":904,"name":"Lidia","price":17,"qty":9},
    {"id":905,"name":"Jana","price":13,"qty":9},
    {"id":906,"name":"Bianka","price":19,"qty":3},
    {"id":907,"name":"Dede","price":44,"qty":5},
    {"id":908,"name":"Hanni","price":44,"qty":7},
    {"id":909,"name":"Hortensia","price":64,"qty":7},
    {"id":910,"name":"Donnajean","price":49,"qty":2},
    {"id":911,"name":"Rosalyn","price":76,"qty":5},
    {"id":912,"name":"Dulcine","price":48,"qty":1},
    {"id":913,"name":"Mabelle","price":74,"qty":5},
    {"id":914,"name":"Yolanthe","price":2,"qty":5},
    {"id":915,"name":"Shawna","price":7,"qty":5},
    {"id":916,"name":"Flss","price":42,"qty":4},
    {"id":917,"name":"Diana","price":29,"qty":8},
    {"id":918,"name":"Elsey","price":34,"qty":10},
    {"id":919,"name":"Leola","price":79,"qty":6},
    {"id":920,"name":"Lamont","price":25,"qty":1},
    {"id":921,"name":"Wendeline","price":81,"qty":2},
    {"id":922,"name":"Eduino","price":73,"qty":4},
    {"id":923,"name":"Nicolle","price":43,"qty":10},
    {"id":924,"name":"Lorianne","price":39,"qty":10},
    {"id":925,"name":"Jena","price":17,"qty":5},
    {"id":926,"name":"Genna","price":61,"qty":10},
    {"id":927,"name":"Zacharias","price":15,"qty":6},
    {"id":928,"name":"Charmaine","price":66,"qty":5},
    {"id":929,"name":"Arni","price":13,"qty":2},
    {"id":930,"name":"Yale","price":66,"qty":4},
    {"id":931,"name":"Andrey","price":62,"qty":2},
    {"id":932,"name":"Aland","price":50,"qty":7},
    {"id":933,"name":"Charil","price":10,"qty":6},
    {"id":934,"name":"Madella","price":4,"qty":8},
    {"id":935,"name":"Fawnia","price":52,"qty":5},
    {"id":936,"name":"Meridel","price":11,"qty":9},
    {"id":937,"name":"Silvan","price":68,"qty":3},
    {"id":938,"name":"Bartie","price":72,"qty":1},
    {"id":939,"name":"Joseito","price":2,"qty":2},
    {"id":940,"name":"Ailyn","price":32,"qty":5},
    {"id":941,"name":"Ardelia","price":95,"qty":4},
    {"id":942,"name":"Devinne","price":92,"qty":3},
    {"id":943,"name":"Galvan","price":1,"qty":7},
    {"id":944,"name":"Dame","price":90,"qty":8},
    {"id":945,"name":"Mercie","price":82,"qty":9},
    {"id":946,"name":"Cooper","price":76,"qty":3},
    {"id":947,"name":"Thomas","price":22,"qty":3},
    {"id":948,"name":"Findlay","price":94,"qty":10},
    {"id":949,"name":"Mohandis","price":11,"qty":1},
    {"id":950,"name":"Corabelle","price":8,"qty":5},
    {"id":951,"name":"Ludvig","price":65,"qty":2},
    {"id":952,"name":"Shell","price":67,"qty":5},
    {"id":953,"name":"Hildegarde","price":95,"qty":3},
    {"id":954,"name":"Myrvyn","price":3,"qty":3},
    {"id":955,"name":"Flossy","price":24,"qty":3},
    {"id":956,"name":"Kennith","price":83,"qty":4},
    {"id":957,"name":"Charline","price":56,"qty":3},
    {"id":958,"name":"Dennison","price":13,"qty":1},
    {"id":959,"name":"Dame","price":64,"qty":1},
    {"id":960,"name":"Tresa","price":67,"qty":1},
    {"id":961,"name":"Regan","price":2,"qty":9},
    {"id":962,"name":"Crysta","price":27,"qty":7},
    {"id":963,"name":"Gordie","price":49,"qty":2},
    {"id":964,"name":"Gustav","price":86,"qty":8},
    {"id":965,"name":"Kenny","price":61,"qty":1},
    {"id":966,"name":"Sharl","price":8,"qty":4},
    {"id":967,"name":"Debbi","price":86,"qty":2},
    {"id":968,"name":"Theodora","price":53,"qty":5},
    {"id":969,"name":"Jerry","price":76,"qty":9},
    {"id":970,"name":"Willy","price":84,"qty":1},
    {"id":971,"name":"Brinna","price":3,"qty":8},
    {"id":972,"name":"Noland","price":8,"qty":5},
    {"id":973,"name":"Melesa","price":53,"qty":5},
    {"id":974,"name":"Amandie","price":61,"qty":8},
    {"id":975,"name":"Dorri","price":62,"qty":7},
    {"id":976,"name":"Jolynn","price":35,"qty":6},
    {"id":977,"name":"Dodi","price":54,"qty":1},
    {"id":978,"name":"Min","price":68,"qty":9},
    {"id":979,"name":"Maynord","price":81,"qty":1},
    {"id":980,"name":"Madella","price":23,"qty":2},
    {"id":981,"name":"Nick","price":5,"qty":7},
    {"id":982,"name":"Lynelle","price":33,"qty":1},
    {"id":983,"name":"Cristabel","price":80,"qty":9},
    {"id":984,"name":"Josiah","price":36,"qty":8},
    {"id":985,"name":"Friedrick","price":83,"qty":3},
    {"id":986,"name":"Taber","price":99,"qty":1},
    {"id":987,"name":"Stephana","price":30,"qty":7},
    {"id":988,"name":"Halsey","price":68,"qty":10},
    {"id":989,"name":"Creighton","price":61,"qty":4},
    {"id":990,"name":"Orland","price":68,"qty":2},
    {"id":991,"name":"Collen","price":48,"qty":2},
    {"id":992,"name":"Drucill","price":91,"qty":5},
    {"id":993,"name":"Ileana","price":95,"qty":7},
    {"id":994,"name":"Kinsley","price":89,"qty":1},
    {"id":995,"name":"Regina","price":35,"qty":2},
    {"id":996,"name":"Conchita","price":66,"qty":6},
    {"id":997,"name":"Agatha","price":65,"qty":8},
    {"id":998,"name":"Palmer","price":50,"qty":5},
    {"id":999,"name":"Conant","price":64,"qty":2},
    {"id":1000,"name":"Katerina","price":90,"qty":7}]